[Thu, 12 Oct 2017 14:23:23 GMT] [info] [<0.000.0>] pouchdb-server has started on http://127.0.0.1:5984/
[Thu, 12 Oct 2017 14:23:23 GMT] [info] [<0.000.0>] navigate to http://127.0.0.1:5984/_utils for the Fauxton UI.
[Thu, 12 Oct 2017 14:23:49 GMT] [info] [<0.000.0>] 127.0.0.1 - - GET / 200
[Thu, 12 Oct 2017 14:23:55 GMT] [info] [<0.000.0>] 127.0.0.1 - - GET /_utils 301
[Thu, 12 Oct 2017 14:23:55 GMT] [info] [<0.000.0>] 127.0.0.1 - - GET /_utils/ 200
[Thu, 12 Oct 2017 14:23:55 GMT] [info] [<0.000.0>] 127.0.0.1 - - GET /_utils/dashboard.assets/css/styles-a9623008fc27e79da2388441deeacfab.css 200
[Thu, 12 Oct 2017 14:23:55 GMT] [info] [<0.000.0>] 127.0.0.1 - - GET /_utils/dashboard.assets/js/bundle-34997e32896293a1fa5d71f79eb1b4f7.js 200
[Thu, 12 Oct 2017 14:23:55 GMT] [info] [<0.000.0>] 127.0.0.1 - - GET /_session 200
[Thu, 12 Oct 2017 14:23:55 GMT] [info] [<0.000.0>] 127.0.0.1 - - GET /_session 304
[Thu, 12 Oct 2017 14:23:55 GMT] [info] [<0.000.0>] 127.0.0.1 - - GET / 304
[Thu, 12 Oct 2017 14:23:56 GMT] [info] [<0.000.0>] 127.0.0.1 - - GET /_utils/dashboard.assets/img/pouchdb-site.png 200
[Thu, 12 Oct 2017 14:23:56 GMT] [info] [<0.000.0>] 127.0.0.1 - - GET /_utils/dashboard.assets/fonts/fauxtonicon5.woff 200
[Thu, 12 Oct 2017 14:23:56 GMT] [info] [<0.000.0>] 127.0.0.1 - - GET /_all_dbs?_=1507818235717 200
[Thu, 12 Oct 2017 14:23:56 GMT] [info] [<0.000.0>] 127.0.0.1 - - GET /_all_dbs?startkey=%22%22&endkey=%22%E9%A6%99%22&limit=30&_=1507818235718 200
[Thu, 12 Oct 2017 14:23:56 GMT] [info] [<0.000.0>] 127.0.0.1 - - GET /_replicator?_=1507818235719 200
[Thu, 12 Oct 2017 14:23:56 GMT] [info] [<0.000.0>] 127.0.0.1 - - GET /_users?_=1507818235720 200
[Thu, 12 Oct 2017 14:23:56 GMT] [info] [<0.000.0>] 127.0.0.1 - - GET /_utils/dashboard.assets/fonts/fontawesome-webfont.woff 200
[Thu, 12 Oct 2017 14:23:56 GMT] [info] [<0.000.0>] 127.0.0.1 - - GET /_utils/dashboard.assets/img/pouchdb-favicon.png 200
[Thu, 12 Oct 2017 14:23:59 GMT] [info] [<0.000.0>] 127.0.0.1 - - GET /_users/_all_docs?startkey=%22_design%2F%22&endkey=%22_design0%22&include_docs=true&limit=501 200
[Thu, 12 Oct 2017 14:23:59 GMT] [info] [<0.000.0>] 127.0.0.1 - - GET /_users/_all_docs?limit=21&include_docs=true 200
[Thu, 12 Oct 2017 14:23:59 GMT] [info] [<0.000.0>] 127.0.0.1 - - GET /_users/_all_docs?startkey=%22%22&endkey=%22%E9%A6%99%22&limit=30&_=1507818235721 200
[Thu, 12 Oct 2017 14:24:01 GMT] [info] [<0.000.0>] 127.0.0.1 - - GET /_all_dbs?_=1507818235722 200
[Thu, 12 Oct 2017 14:24:02 GMT] [info] [<0.000.0>] 127.0.0.1 - - GET /_replicator?_=1507818235723 200
[Thu, 12 Oct 2017 14:24:02 GMT] [info] [<0.000.0>] 127.0.0.1 - - GET /_users?_=1507818235724 200
[Thu, 12 Oct 2017 14:24:03 GMT] [info] [<0.000.0>] 127.0.0.1 - - GET /_users/_all_docs?startkey=%22_design%2F%22&endkey=%22_design0%22&include_docs=true&limit=501 304
[Thu, 12 Oct 2017 14:24:03 GMT] [info] [<0.000.0>] 127.0.0.1 - - GET /_users/_all_docs?limit=21&include_docs=true 304
[Thu, 12 Oct 2017 14:24:03 GMT] [info] [<0.000.0>] 127.0.0.1 - - GET /_users/_all_docs?startkey=%22%22&endkey=%22%E9%A6%99%22&limit=30&_=1507818235725 200
[Thu, 12 Oct 2017 14:24:10 GMT] [info] [<0.000.0>] 127.0.0.1 - - GET /_all_dbs?_=1507818235726 200
[Thu, 12 Oct 2017 14:24:10 GMT] [info] [<0.000.0>] 127.0.0.1 - - GET /_replicator?_=1507818235727 200
[Thu, 12 Oct 2017 14:24:10 GMT] [info] [<0.000.0>] 127.0.0.1 - - GET /_users?_=1507818235728 200
[Thu, 12 Oct 2017 14:24:21 GMT] [info] [<0.000.0>] 127.0.0.1 - - GET /_membership 200
[Thu, 12 Oct 2017 14:24:21 GMT] [info] [<0.000.0>] 127.0.0.1 - - GET /_node/node1@127.0.0.1/_config 200
[Thu, 12 Oct 2017 14:24:22 GMT] [info] [<0.000.0>] 127.0.0.1 - - GET /_membership 304
[Thu, 12 Oct 2017 14:24:22 GMT] [info] [<0.000.0>] 127.0.0.1 - - GET /_node/node1@127.0.0.1/_config 304
[Thu, 12 Oct 2017 14:24:23 GMT] [info] [<0.000.0>] 127.0.0.1 - - GET /_active_tasks 200
[Thu, 12 Oct 2017 14:24:25 GMT] [info] [<0.000.0>] 127.0.0.1 - - GET /_all_dbs?_=1507818235729 200
[Thu, 12 Oct 2017 14:24:25 GMT] [info] [<0.000.0>] 127.0.0.1 - - GET /_replicator?_=1507818235730 200
[Thu, 12 Oct 2017 14:24:25 GMT] [info] [<0.000.0>] 127.0.0.1 - - GET /_users?_=1507818235731 200
[Thu, 12 Oct 2017 14:24:26 GMT] [info] [<0.000.0>] 127.0.0.1 - - GET /_replicator/_all_docs?startkey=%22_design%2F%22&endkey=%22_design0%22&include_docs=true&limit=501 200
[Thu, 12 Oct 2017 14:24:26 GMT] [info] [<0.000.0>] 127.0.0.1 - - GET /_replicator/_all_docs?limit=21&include_docs=true 200
[Thu, 12 Oct 2017 14:24:26 GMT] [info] [<0.000.0>] 127.0.0.1 - - GET /_replicator/_all_docs?startkey=%22%22&endkey=%22%E9%A6%99%22&limit=30&_=1507818235732 200
[Thu, 12 Oct 2017 14:24:28 GMT] [info] [<0.000.0>] 127.0.0.1 - - GET /_all_dbs?_=1507818235733 200
[Thu, 12 Oct 2017 14:24:28 GMT] [info] [<0.000.0>] 127.0.0.1 - - GET /_replicator?_=1507818235734 200
[Thu, 12 Oct 2017 14:24:28 GMT] [info] [<0.000.0>] 127.0.0.1 - - GET /_users?_=1507818235735 200
[Thu, 12 Oct 2017 14:24:29 GMT] [info] [<0.000.0>] 127.0.0.1 - - GET /_users/_all_docs?startkey=%22_design%2F%22&endkey=%22_design0%22&include_docs=true&limit=501 304
[Thu, 12 Oct 2017 14:24:29 GMT] [info] [<0.000.0>] 127.0.0.1 - - GET /_users/_all_docs?limit=21&include_docs=true 304
[Thu, 12 Oct 2017 14:24:29 GMT] [info] [<0.000.0>] 127.0.0.1 - - GET /_users/_all_docs?startkey=%22%22&endkey=%22%E9%A6%99%22&limit=30&_=1507818235736 200
[Thu, 12 Oct 2017 14:24:31 GMT] [info] [<0.000.0>] 127.0.0.1 - - GET /_users/_all_docs?limit=21&include_docs=true 304
[Thu, 12 Oct 2017 14:24:33 GMT] [info] [<0.000.0>] 127.0.0.1 - - GET /_users/_all_docs?limit=21&include_docs=true 304
[Thu, 12 Oct 2017 14:24:49 GMT] [info] [<0.000.0>] 127.0.0.1 - - GET /_all_dbs?_=1507818235737 200
[Thu, 12 Oct 2017 14:24:49 GMT] [info] [<0.000.0>] 127.0.0.1 - - GET /_replicator?_=1507818235738 200
[Thu, 12 Oct 2017 14:24:49 GMT] [info] [<0.000.0>] 127.0.0.1 - - GET /_users?_=1507818235739 200
[Thu, 12 Oct 2017 14:25:24 GMT] [info] [<0.000.0>] 127.0.0.1 - - GET /_utils/ 200
[Thu, 12 Oct 2017 14:25:25 GMT] [info] [<0.000.0>] 127.0.0.1 - - GET /_utils/dashboard.assets/css/styles-a9623008fc27e79da2388441deeacfab.css 200
[Thu, 12 Oct 2017 14:25:25 GMT] [info] [<0.000.0>] 127.0.0.1 - - GET /_utils/dashboard.assets/js/bundle-34997e32896293a1fa5d71f79eb1b4f7.js 200
[Thu, 12 Oct 2017 14:25:25 GMT] [info] [<0.000.0>] 127.0.0.1 - - GET /_session 200
[Thu, 12 Oct 2017 14:25:25 GMT] [info] [<0.000.0>] 127.0.0.1 - - GET /_session 200
[Thu, 12 Oct 2017 14:25:25 GMT] [info] [<0.000.0>] 127.0.0.1 - - GET / 200
[Thu, 12 Oct 2017 14:25:25 GMT] [info] [<0.000.0>] 127.0.0.1 - - GET /_utils/dashboard.assets/img/pouchdb-site.png 200
[Thu, 12 Oct 2017 14:25:25 GMT] [info] [<0.000.0>] 127.0.0.1 - - GET /_utils/dashboard.assets/fonts/fauxtonicon5.woff 200
[Thu, 12 Oct 2017 14:25:25 GMT] [info] [<0.000.0>] 127.0.0.1 - - GET /_all_dbs?_=1507818325244 200
[Thu, 12 Oct 2017 14:25:25 GMT] [info] [<0.000.0>] 127.0.0.1 - - GET /_all_dbs?startkey=%22%22&endkey=%22%E9%A6%99%22&limit=30&_=1507818325245 200
[Thu, 12 Oct 2017 14:25:25 GMT] [info] [<0.000.0>] 127.0.0.1 - - GET /_replicator?_=1507818325246 200
[Thu, 12 Oct 2017 14:25:25 GMT] [info] [<0.000.0>] 127.0.0.1 - - GET /_users?_=1507818325247 200
[Thu, 12 Oct 2017 14:25:25 GMT] [info] [<0.000.0>] 127.0.0.1 - - GET /_utils/dashboard.assets/fonts/fontawesome-webfont.woff 200
[Thu, 12 Oct 2017 14:25:25 GMT] [info] [<0.000.0>] 127.0.0.1 - - GET /_utils/dashboard.assets/img/pouchdb-favicon.png 200
[Thu, 12 Oct 2017 14:25:34 GMT] [info] [<0.000.0>] 127.0.0.1 - - GET /_utils/ 304
[Thu, 12 Oct 2017 14:25:34 GMT] [info] [<0.000.0>] 127.0.0.1 - - GET /_utils/dashboard.assets/css/styles-a9623008fc27e79da2388441deeacfab.css 304
[Thu, 12 Oct 2017 14:25:34 GMT] [info] [<0.000.0>] 127.0.0.1 - - GET /_utils/dashboard.assets/js/bundle-34997e32896293a1fa5d71f79eb1b4f7.js 304
[Thu, 12 Oct 2017 14:25:34 GMT] [info] [<0.000.0>] 127.0.0.1 - - GET /_session 304
[Thu, 12 Oct 2017 14:25:34 GMT] [info] [<0.000.0>] 127.0.0.1 - - GET /_session 304
[Thu, 12 Oct 2017 14:25:34 GMT] [info] [<0.000.0>] 127.0.0.1 - - GET / 304
[Thu, 12 Oct 2017 14:25:34 GMT] [info] [<0.000.0>] 127.0.0.1 - - GET /_utils/dashboard.assets/img/pouchdb-site.png 304
[Thu, 12 Oct 2017 14:25:34 GMT] [info] [<0.000.0>] 127.0.0.1 - - GET /_utils/dashboard.assets/fonts/fauxtonicon5.woff 304
[Thu, 12 Oct 2017 14:25:34 GMT] [info] [<0.000.0>] 127.0.0.1 - - GET /_all_dbs?_=1507818334346 200
[Thu, 12 Oct 2017 14:25:34 GMT] [info] [<0.000.0>] 127.0.0.1 - - GET /_all_dbs?startkey=%22%22&endkey=%22%E9%A6%99%22&limit=30&_=1507818334347 200
[Thu, 12 Oct 2017 14:25:34 GMT] [info] [<0.000.0>] 127.0.0.1 - - GET /_replicator?_=1507818334348 200
[Thu, 12 Oct 2017 14:25:34 GMT] [info] [<0.000.0>] 127.0.0.1 - - GET /_users?_=1507818334349 200
[Thu, 12 Oct 2017 14:25:34 GMT] [info] [<0.000.0>] 127.0.0.1 - - GET /_utils/dashboard.assets/fonts/fontawesome-webfont.woff 304
[Thu, 12 Oct 2017 14:25:39 GMT] [info] [<0.000.0>] 127.0.0.1 - - GET /_utils/ 304
[Thu, 12 Oct 2017 14:25:39 GMT] [info] [<0.000.0>] 127.0.0.1 - - GET /_utils/dashboard.assets/css/styles-a9623008fc27e79da2388441deeacfab.css 304
[Thu, 12 Oct 2017 14:25:39 GMT] [info] [<0.000.0>] 127.0.0.1 - - GET /_utils/dashboard.assets/js/bundle-34997e32896293a1fa5d71f79eb1b4f7.js 304
[Thu, 12 Oct 2017 14:25:39 GMT] [info] [<0.000.0>] 127.0.0.1 - - GET /_session 304
[Thu, 12 Oct 2017 14:25:39 GMT] [info] [<0.000.0>] 127.0.0.1 - - GET /_session 304
[Thu, 12 Oct 2017 14:25:39 GMT] [info] [<0.000.0>] 127.0.0.1 - - GET / 304
[Thu, 12 Oct 2017 14:25:39 GMT] [info] [<0.000.0>] 127.0.0.1 - - GET /_utils/dashboard.assets/img/pouchdb-site.png 304
[Thu, 12 Oct 2017 14:25:39 GMT] [info] [<0.000.0>] 127.0.0.1 - - GET /_utils/dashboard.assets/fonts/fauxtonicon5.woff 304
[Thu, 12 Oct 2017 14:25:39 GMT] [info] [<0.000.0>] 127.0.0.1 - - GET /_all_dbs?_=1507818339426 200
[Thu, 12 Oct 2017 14:25:39 GMT] [info] [<0.000.0>] 127.0.0.1 - - GET /_all_dbs?startkey=%22%22&endkey=%22%E9%A6%99%22&limit=30&_=1507818339427 200
[Thu, 12 Oct 2017 14:25:39 GMT] [info] [<0.000.0>] 127.0.0.1 - - GET /_replicator?_=1507818339428 200
[Thu, 12 Oct 2017 14:25:39 GMT] [info] [<0.000.0>] 127.0.0.1 - - GET /_users?_=1507818339429 200
[Thu, 12 Oct 2017 14:25:39 GMT] [info] [<0.000.0>] 127.0.0.1 - - GET /_utils/dashboard.assets/fonts/fontawesome-webfont.woff 304
[Thu, 12 Oct 2017 14:26:36 GMT] [info] [<0.000.0>] 127.0.0.1 - - GET /_utils/ 304
[Thu, 12 Oct 2017 14:26:36 GMT] [info] [<0.000.0>] 127.0.0.1 - - GET /_utils/dashboard.assets/css/styles-a9623008fc27e79da2388441deeacfab.css 304
[Thu, 12 Oct 2017 14:26:36 GMT] [info] [<0.000.0>] 127.0.0.1 - - GET /_utils/dashboard.assets/js/bundle-34997e32896293a1fa5d71f79eb1b4f7.js 304
[Thu, 12 Oct 2017 14:26:36 GMT] [info] [<0.000.0>] 127.0.0.1 - - GET /_session 304
[Thu, 12 Oct 2017 14:26:36 GMT] [info] [<0.000.0>] 127.0.0.1 - - GET /_session 304
[Thu, 12 Oct 2017 14:26:36 GMT] [info] [<0.000.0>] 127.0.0.1 - - GET / 304
[Thu, 12 Oct 2017 14:26:36 GMT] [info] [<0.000.0>] 127.0.0.1 - - GET /_utils/dashboard.assets/img/pouchdb-site.png 304
[Thu, 12 Oct 2017 14:26:36 GMT] [info] [<0.000.0>] 127.0.0.1 - - GET /_utils/dashboard.assets/fonts/fauxtonicon5.woff 304
[Thu, 12 Oct 2017 14:26:36 GMT] [info] [<0.000.0>] 127.0.0.1 - - GET /_all_dbs?_=1507818396697 200
[Thu, 12 Oct 2017 14:26:36 GMT] [info] [<0.000.0>] 127.0.0.1 - - GET /_all_dbs?startkey=%22%22&endkey=%22%E9%A6%99%22&limit=30&_=1507818396698 200
[Thu, 12 Oct 2017 14:26:36 GMT] [info] [<0.000.0>] 127.0.0.1 - - GET /_replicator?_=1507818396699 200
[Thu, 12 Oct 2017 14:26:36 GMT] [info] [<0.000.0>] 127.0.0.1 - - GET /_users?_=1507818396700 200
[Thu, 12 Oct 2017 14:26:36 GMT] [info] [<0.000.0>] 127.0.0.1 - - GET /_utils/dashboard.assets/fonts/fontawesome-webfont.woff 304
[Thu, 12 Oct 2017 14:26:36 GMT] [info] [<0.000.0>] 127.0.0.1 - - GET /_utils/dashboard.assets/img/pouchdb-favicon.png 200
[Thu, 12 Oct 2017 14:26:38 GMT] [info] [<0.000.0>] 127.0.0.1 - - GET /_users/_all_docs?startkey=%22_design%2F%22&endkey=%22_design0%22&include_docs=true&limit=501 304
[Thu, 12 Oct 2017 14:26:38 GMT] [info] [<0.000.0>] 127.0.0.1 - - GET /_users/_all_docs?limit=21&include_docs=true 304
[Thu, 12 Oct 2017 14:26:38 GMT] [info] [<0.000.0>] 127.0.0.1 - - GET /_users/_all_docs?startkey=%22%22&endkey=%22%E9%A6%99%22&limit=30&_=1507818396701 200
[Thu, 12 Oct 2017 14:26:40 GMT] [info] [<0.000.0>] 127.0.0.1 - - GET /_active_tasks 304
[Thu, 12 Oct 2017 14:26:42 GMT] [info] [<0.000.0>] 127.0.0.1 - - GET /_membership 304
[Thu, 12 Oct 2017 14:26:42 GMT] [info] [<0.000.0>] 127.0.0.1 - - GET /_node/node1@127.0.0.1/_config 304
[Thu, 12 Oct 2017 14:26:44 GMT] [info] [<0.000.0>] 127.0.0.1 - - GET /_all_dbs 200
[Thu, 12 Oct 2017 14:26:44 GMT] [info] [<0.000.0>] 127.0.0.1 - - GET /_replicator/_all_docs?include_docs=true&limit=100 200
[Thu, 12 Oct 2017 14:26:44 GMT] [info] [<0.000.0>] 127.0.0.1 - - GET /_utils/dashboard.assets/img/couchdb-logo.png 200
[Thu, 12 Oct 2017 14:26:44 GMT] [info] [<0.000.0>] 127.0.0.1 - - GET /_utils/dashboard.assets/img/github.png 200
[Thu, 12 Oct 2017 14:26:44 GMT] [info] [<0.000.0>] 127.0.0.1 - - GET /_utils/dashboard.assets/img/asf-feather-logo.png 200
[Thu, 12 Oct 2017 14:26:44 GMT] [info] [<0.000.0>] 127.0.0.1 - - GET /_utils/dashboard.assets/img/twitter.png 200
[Thu, 12 Oct 2017 14:26:44 GMT] [info] [<0.000.0>] 127.0.0.1 - - GET /_utils/dashboard.assets/img/googleplus.png 200
[Thu, 12 Oct 2017 14:26:44 GMT] [info] [<0.000.0>] 127.0.0.1 - - GET /_utils/dashboard.assets/img/linkedin.png 200
[Thu, 12 Oct 2017 14:26:45 GMT] [info] [<0.000.0>] 127.0.0.1 - - GET /_all_dbs 304
[Thu, 12 Oct 2017 14:26:45 GMT] [info] [<0.000.0>] 127.0.0.1 - - GET /_replicator/_all_docs?include_docs=true&limit=100 304
[Thu, 12 Oct 2017 14:26:49 GMT] [info] [<0.000.0>] 127.0.0.1 - - GET /_all_dbs 304
[Thu, 12 Oct 2017 14:26:49 GMT] [info] [<0.000.0>] 127.0.0.1 - - GET /_replicator/_all_docs?include_docs=true&limit=100 304
[Thu, 12 Oct 2017 14:26:51 GMT] [info] [<0.000.0>] 127.0.0.1 - - GET /_membership 304
[Thu, 12 Oct 2017 14:26:51 GMT] [info] [<0.000.0>] 127.0.0.1 - - GET /_node/node1@127.0.0.1/_config 304
[Thu, 12 Oct 2017 14:26:51 GMT] [info] [<0.000.0>] 127.0.0.1 - - GET /_active_tasks 304
[Thu, 12 Oct 2017 14:26:55 GMT] [info] [<0.000.0>] 127.0.0.1 - - GET /_all_dbs?_=1507818396702 200
[Thu, 12 Oct 2017 14:26:55 GMT] [info] [<0.000.0>] 127.0.0.1 - - GET /_replicator?_=1507818396703 200
[Thu, 12 Oct 2017 14:26:55 GMT] [info] [<0.000.0>] 127.0.0.1 - - GET /_users?_=1507818396704 200
[Thu, 12 Oct 2017 14:26:58 GMT] [info] [<0.000.0>] 127.0.0.1 - - GET /_users/_all_docs?startkey=%22_design%2F%22&endkey=%22_design0%22&include_docs=true&limit=501 304
[Thu, 12 Oct 2017 14:26:58 GMT] [info] [<0.000.0>] 127.0.0.1 - - GET /_users/_all_docs?limit=21&include_docs=true 304
[Thu, 12 Oct 2017 14:26:58 GMT] [info] [<0.000.0>] 127.0.0.1 - - GET /_users/_all_docs?startkey=%22%22&endkey=%22%E9%A6%99%22&limit=30&_=1507818396705 200
[Thu, 12 Oct 2017 14:27:04 GMT] [info] [<0.000.0>] 127.0.0.1 - - POST /_users/_bulk_docs 201
[Thu, 12 Oct 2017 14:27:04 GMT] [info] [<0.000.0>] 127.0.0.1 - - GET /_users/_all_docs?startkey=%22_design%2F%22&endkey=%22_design0%22&include_docs=true&limit=501 200
[Thu, 12 Oct 2017 14:27:04 GMT] [info] [<0.000.0>] 127.0.0.1 - - GET /_users/_all_docs?limit=21&include_docs=true 200
[Thu, 12 Oct 2017 14:27:04 GMT] [info] [<0.000.0>] 127.0.0.1 - - GET /_utils/dashboard.assets/img/couch-watermark.png 200
[Thu, 12 Oct 2017 14:27:06 GMT] [info] [<0.000.0>] 127.0.0.1 - - GET /_all_dbs?_=1507818396706 200
[Thu, 12 Oct 2017 14:27:06 GMT] [info] [<0.000.0>] 127.0.0.1 - - GET /_replicator?_=1507818396707 200
[Thu, 12 Oct 2017 14:27:06 GMT] [info] [<0.000.0>] 127.0.0.1 - - GET /_users?_=1507818396708 200
[Thu, 12 Oct 2017 14:27:08 GMT] [info] [<0.000.0>] 127.0.0.1 - - GET /_users/_all_docs?startkey=%22_design%2F%22&endkey=%22_design0%22&include_docs=true&limit=501 304
[Thu, 12 Oct 2017 14:27:08 GMT] [info] [<0.000.0>] 127.0.0.1 - - GET /_users/_all_docs?limit=21&include_docs=true 304
[Thu, 12 Oct 2017 14:27:08 GMT] [info] [<0.000.0>] 127.0.0.1 - - GET /_users/_all_docs?startkey=%22%22&endkey=%22%E9%A6%99%22&limit=30&_=1507818396709 200
[Thu, 12 Oct 2017 14:27:09 GMT] [info] [<0.000.0>] 127.0.0.1 - - GET /_all_dbs?_=1507818396710 200
[Thu, 12 Oct 2017 14:27:09 GMT] [info] [<0.000.0>] 127.0.0.1 - - GET /_replicator?_=1507818396711 200
[Thu, 12 Oct 2017 14:27:09 GMT] [info] [<0.000.0>] 127.0.0.1 - - GET /_users?_=1507818396712 200
[Thu, 12 Oct 2017 14:27:17 GMT] [info] [<0.000.0>] 127.0.0.1 - - PUT /users 201
[Thu, 12 Oct 2017 14:27:17 GMT] [info] [<0.000.0>] 127.0.0.1 - - GET /users/_all_docs?startkey=%22_design%2F%22&endkey=%22_design0%22&include_docs=true&limit=501 200
[Thu, 12 Oct 2017 14:27:17 GMT] [info] [<0.000.0>] 127.0.0.1 - - GET /users/_all_docs?limit=21 200
[Thu, 12 Oct 2017 14:27:17 GMT] [info] [<0.000.0>] 127.0.0.1 - - GET /users/_all_docs?startkey=%22%22&endkey=%22%E9%A6%99%22&limit=30&_=1507818396713 200
[Thu, 12 Oct 2017 14:28:23 GMT] [info] [<0.000.0>] 127.0.0.1 - - GET /_all_dbs?_=1507818396714 200
[Thu, 12 Oct 2017 14:28:23 GMT] [info] [<0.000.0>] 127.0.0.1 - - GET /_replicator?_=1507818396715 200
[Thu, 12 Oct 2017 14:28:23 GMT] [info] [<0.000.0>] 127.0.0.1 - - GET /_users?_=1507818396716 200
[Thu, 12 Oct 2017 14:28:23 GMT] [info] [<0.000.0>] 127.0.0.1 - - GET /users?_=1507818396717 200
[Thu, 12 Oct 2017 14:28:25 GMT] [info] [<0.000.0>] 127.0.0.1 - - GET /users/_all_docs?startkey=%22_design%2F%22&endkey=%22_design0%22&include_docs=true&limit=501 304
[Thu, 12 Oct 2017 14:28:25 GMT] [info] [<0.000.0>] 127.0.0.1 - - GET /users/_all_docs?limit=21 304
[Thu, 12 Oct 2017 14:28:25 GMT] [info] [<0.000.0>] 127.0.0.1 - - GET /users/_all_docs?startkey=%22%22&endkey=%22%E9%A6%99%22&limit=30&_=1507818396718 200
[Thu, 12 Oct 2017 14:28:26 GMT] [info] [<0.000.0>] 127.0.0.1 - - GET /_all_dbs?_=1507818396719 200
[Thu, 12 Oct 2017 14:28:26 GMT] [info] [<0.000.0>] 127.0.0.1 - - GET /_replicator?_=1507818396720 200
[Thu, 12 Oct 2017 14:28:26 GMT] [info] [<0.000.0>] 127.0.0.1 - - GET /_users?_=1507818396721 200
[Thu, 12 Oct 2017 14:28:26 GMT] [info] [<0.000.0>] 127.0.0.1 - - GET /users?_=1507818396722 200
[Thu, 12 Oct 2017 14:29:17 GMT] [info] [<0.000.0>] 127.0.0.1 - - GET /_utils/ 304
[Thu, 12 Oct 2017 14:29:17 GMT] [info] [<0.000.0>] 127.0.0.1 - - GET /_utils/dashboard.assets/css/styles-a9623008fc27e79da2388441deeacfab.css 304
[Thu, 12 Oct 2017 14:29:17 GMT] [info] [<0.000.0>] 127.0.0.1 - - GET /_utils/dashboard.assets/js/bundle-34997e32896293a1fa5d71f79eb1b4f7.js 304
[Thu, 12 Oct 2017 14:29:17 GMT] [info] [<0.000.0>] 127.0.0.1 - - GET /_session 304
[Thu, 12 Oct 2017 14:29:18 GMT] [info] [<0.000.0>] 127.0.0.1 - - GET /_session 304
[Thu, 12 Oct 2017 14:29:18 GMT] [info] [<0.000.0>] 127.0.0.1 - - GET / 304
[Thu, 12 Oct 2017 14:29:18 GMT] [info] [<0.000.0>] 127.0.0.1 - - GET /_utils/dashboard.assets/img/pouchdb-site.png 304
[Thu, 12 Oct 2017 14:29:18 GMT] [info] [<0.000.0>] 127.0.0.1 - - GET /_utils/dashboard.assets/fonts/fauxtonicon5.woff 304
[Thu, 12 Oct 2017 14:29:18 GMT] [info] [<0.000.0>] 127.0.0.1 - - GET /_all_dbs?_=1507818557641 200
[Thu, 12 Oct 2017 14:29:18 GMT] [info] [<0.000.0>] 127.0.0.1 - - GET /_all_dbs?startkey=%22%22&endkey=%22%E9%A6%99%22&limit=30&_=1507818557642 200
[Thu, 12 Oct 2017 14:29:18 GMT] [info] [<0.000.0>] 127.0.0.1 - - GET /_replicator?_=1507818557643 200
[Thu, 12 Oct 2017 14:29:18 GMT] [info] [<0.000.0>] 127.0.0.1 - - GET /_users?_=1507818557644 200
[Thu, 12 Oct 2017 14:29:18 GMT] [info] [<0.000.0>] 127.0.0.1 - - GET /users?_=1507818557645 200
[Thu, 12 Oct 2017 14:29:18 GMT] [info] [<0.000.0>] 127.0.0.1 - - GET /_utils/dashboard.assets/fonts/fontawesome-webfont.woff 304
[Thu, 12 Oct 2017 14:29:18 GMT] [info] [<0.000.0>] 127.0.0.1 - - GET /_utils/dashboard.assets/img/pouchdb-favicon.png 200
[Thu, 12 Oct 2017 14:29:20 GMT] [info] [<0.000.0>] 127.0.0.1 - - GET /users/_all_docs?startkey=%22_design%2F%22&endkey=%22_design0%22&include_docs=true&limit=501 304
[Thu, 12 Oct 2017 14:29:20 GMT] [info] [<0.000.0>] 127.0.0.1 - - GET /users/_all_docs?limit=21 304
[Thu, 12 Oct 2017 14:29:20 GMT] [info] [<0.000.0>] 127.0.0.1 - - GET /users/_all_docs?startkey=%22%22&endkey=%22%E9%A6%99%22&limit=30&_=1507818557646 200
[Thu, 12 Oct 2017 14:29:20 GMT] [info] [<0.000.0>] 127.0.0.1 - - GET /_utils/dashboard.assets/img/couch-watermark.png 304
[Thu, 12 Oct 2017 14:29:22 GMT] [info] [<0.000.0>] 127.0.0.1 - - GET /_all_dbs?_=1507818557647 200
[Thu, 12 Oct 2017 14:29:22 GMT] [info] [<0.000.0>] 127.0.0.1 - - GET /_replicator?_=1507818557648 200
[Thu, 12 Oct 2017 14:29:22 GMT] [info] [<0.000.0>] 127.0.0.1 - - GET /_users?_=1507818557649 200
[Thu, 12 Oct 2017 14:29:22 GMT] [info] [<0.000.0>] 127.0.0.1 - - GET /users?_=1507818557650 200
[Thu, 12 Oct 2017 14:29:33 GMT] [info] [<0.000.0>] 127.0.0.1 - - GET / 200
[Thu, 12 Oct 2017 14:29:42 GMT] [info] [<0.000.0>] 127.0.0.1 - - GET /_utils 301
[Thu, 12 Oct 2017 14:29:42 GMT] [info] [<0.000.0>] 127.0.0.1 - - GET /_utils/ 200
[Thu, 12 Oct 2017 14:29:42 GMT] [info] [<0.000.0>] 127.0.0.1 - - GET /_utils/dashboard.assets/css/styles-a9623008fc27e79da2388441deeacfab.css 200
[Thu, 12 Oct 2017 14:29:42 GMT] [info] [<0.000.0>] 127.0.0.1 - - GET /_utils/dashboard.assets/js/bundle-34997e32896293a1fa5d71f79eb1b4f7.js 200
[Thu, 12 Oct 2017 14:29:42 GMT] [info] [<0.000.0>] 127.0.0.1 - - GET /_session 200
[Thu, 12 Oct 2017 14:29:43 GMT] [info] [<0.000.0>] 127.0.0.1 - - GET /_session 304
[Thu, 12 Oct 2017 14:29:43 GMT] [info] [<0.000.0>] 127.0.0.1 - - GET / 304
[Thu, 12 Oct 2017 14:29:43 GMT] [info] [<0.000.0>] 127.0.0.1 - - GET /_utils/dashboard.assets/img/pouchdb-site.png 200
[Thu, 12 Oct 2017 14:29:43 GMT] [info] [<0.000.0>] 127.0.0.1 - - GET /_utils/dashboard.assets/fonts/fauxtonicon5.woff 200
[Thu, 12 Oct 2017 14:29:43 GMT] [info] [<0.000.0>] 127.0.0.1 - - GET /_all_dbs?_=1507818582789 200
[Thu, 12 Oct 2017 14:29:43 GMT] [info] [<0.000.0>] 127.0.0.1 - - GET /_all_dbs?startkey=%22%22&endkey=%22%E9%A6%99%22&limit=30&_=1507818582790 200
[Thu, 12 Oct 2017 14:29:43 GMT] [info] [<0.000.0>] 127.0.0.1 - - GET /_replicator?_=1507818582791 200
[Thu, 12 Oct 2017 14:29:43 GMT] [info] [<0.000.0>] 127.0.0.1 - - GET /_users?_=1507818582792 200
[Thu, 12 Oct 2017 14:29:43 GMT] [info] [<0.000.0>] 127.0.0.1 - - GET /users?_=1507818582793 200
[Thu, 12 Oct 2017 14:29:43 GMT] [info] [<0.000.0>] 127.0.0.1 - - GET /_utils/dashboard.assets/fonts/fontawesome-webfont.woff 200
[Thu, 12 Oct 2017 14:29:43 GMT] [info] [<0.000.0>] 127.0.0.1 - - GET /_utils/dashboard.assets/img/pouchdb-favicon.png 200
[Thu, 12 Oct 2017 14:29:46 GMT] [info] [<0.000.0>] 127.0.0.1 - - GET /_active_tasks 200
[Thu, 12 Oct 2017 14:29:47 GMT] [info] [<0.000.0>] 127.0.0.1 - - GET /_all_dbs?_=1507818582794 200
[Thu, 12 Oct 2017 14:29:47 GMT] [info] [<0.000.0>] 127.0.0.1 - - GET /_replicator?_=1507818582795 200
[Thu, 12 Oct 2017 14:29:47 GMT] [info] [<0.000.0>] 127.0.0.1 - - GET /_users?_=1507818582796 200
[Thu, 12 Oct 2017 14:29:47 GMT] [info] [<0.000.0>] 127.0.0.1 - - GET /users?_=1507818582797 200
[Thu, 12 Oct 2017 14:29:48 GMT] [info] [<0.000.0>] 127.0.0.1 - - GET /_users/_all_docs?startkey=%22_design%2F%22&endkey=%22_design0%22&include_docs=true&limit=501 200
[Thu, 12 Oct 2017 14:29:48 GMT] [info] [<0.000.0>] 127.0.0.1 - - GET /_users/_all_docs?limit=21&include_docs=true 200
[Thu, 12 Oct 2017 14:29:48 GMT] [info] [<0.000.0>] 127.0.0.1 - - GET /_users/_all_docs?startkey=%22%22&endkey=%22%E9%A6%99%22&limit=30&_=1507818582798 200
[Thu, 12 Oct 2017 14:29:48 GMT] [info] [<0.000.0>] 127.0.0.1 - - GET /_utils/dashboard.assets/img/couch-watermark.png 200
[Thu, 12 Oct 2017 14:29:49 GMT] [info] [<0.000.0>] 127.0.0.1 - - GET /_all_dbs?_=1507818582799 200
[Thu, 12 Oct 2017 14:29:49 GMT] [info] [<0.000.0>] 127.0.0.1 - - GET /_replicator?_=1507818582800 200
[Thu, 12 Oct 2017 14:29:49 GMT] [info] [<0.000.0>] 127.0.0.1 - - GET /_users?_=1507818582801 200
[Thu, 12 Oct 2017 14:29:49 GMT] [info] [<0.000.0>] 127.0.0.1 - - GET /users?_=1507818582802 200
[Thu, 12 Oct 2017 14:29:50 GMT] [info] [<0.000.0>] 127.0.0.1 - - GET /users/_all_docs?startkey=%22_design%2F%22&endkey=%22_design0%22&include_docs=true&limit=501 200
[Thu, 12 Oct 2017 14:29:50 GMT] [info] [<0.000.0>] 127.0.0.1 - - GET /users/_all_docs?limit=21 200
[Thu, 12 Oct 2017 14:29:50 GMT] [info] [<0.000.0>] 127.0.0.1 - - GET /users/_all_docs?startkey=%22%22&endkey=%22%E9%A6%99%22&limit=30&_=1507818582803 200
[Thu, 12 Oct 2017 14:29:51 GMT] [info] [<0.000.0>] 127.0.0.1 - - GET /_all_dbs?_=1507818582804 200
[Thu, 12 Oct 2017 14:29:51 GMT] [info] [<0.000.0>] 127.0.0.1 - - GET /_replicator?_=1507818582805 200
[Thu, 12 Oct 2017 14:29:51 GMT] [info] [<0.000.0>] 127.0.0.1 - - GET /_users?_=1507818582806 200
[Thu, 12 Oct 2017 14:29:51 GMT] [info] [<0.000.0>] 127.0.0.1 - - GET /users?_=1507818582807 200
[Thu, 12 Oct 2017 14:30:33 GMT] [info] [<0.000.0>] 127.0.0.1 - - GET / 304
[Thu, 12 Oct 2017 14:30:39 GMT] [info] [<0.000.0>] 127.0.0.1 - - GET /_utils/ 304
[Thu, 12 Oct 2017 14:30:39 GMT] [info] [<0.000.0>] 127.0.0.1 - - GET /_utils/dashboard.assets/css/styles-a9623008fc27e79da2388441deeacfab.css 304
[Thu, 12 Oct 2017 14:30:39 GMT] [info] [<0.000.0>] 127.0.0.1 - - GET /_utils/dashboard.assets/js/bundle-34997e32896293a1fa5d71f79eb1b4f7.js 304
[Thu, 12 Oct 2017 14:30:40 GMT] [info] [<0.000.0>] 127.0.0.1 - - GET /_session 304
[Thu, 12 Oct 2017 14:30:40 GMT] [info] [<0.000.0>] 127.0.0.1 - - GET /_session 304
[Thu, 12 Oct 2017 14:30:40 GMT] [info] [<0.000.0>] 127.0.0.1 - - GET / 304
[Thu, 12 Oct 2017 14:30:40 GMT] [info] [<0.000.0>] 127.0.0.1 - - GET /_utils/dashboard.assets/img/pouchdb-site.png 304
[Thu, 12 Oct 2017 14:30:40 GMT] [info] [<0.000.0>] 127.0.0.1 - - GET /_utils/dashboard.assets/fonts/fauxtonicon5.woff 304
[Thu, 12 Oct 2017 14:30:40 GMT] [info] [<0.000.0>] 127.0.0.1 - - GET /_all_dbs?_=1507818640101 200
[Thu, 12 Oct 2017 14:30:40 GMT] [info] [<0.000.0>] 127.0.0.1 - - GET /_all_dbs?startkey=%22%22&endkey=%22%E9%A6%99%22&limit=30&_=1507818640102 200
[Thu, 12 Oct 2017 14:30:40 GMT] [info] [<0.000.0>] 127.0.0.1 - - GET /_replicator?_=1507818640103 200
[Thu, 12 Oct 2017 14:30:40 GMT] [info] [<0.000.0>] 127.0.0.1 - - GET /_users?_=1507818640104 200
[Thu, 12 Oct 2017 14:30:40 GMT] [info] [<0.000.0>] 127.0.0.1 - - GET /users?_=1507818640105 200
[Thu, 12 Oct 2017 14:30:40 GMT] [info] [<0.000.0>] 127.0.0.1 - - GET /_utils/dashboard.assets/fonts/fontawesome-webfont.woff 304
[Thu, 12 Oct 2017 14:30:48 GMT] [info] [<0.000.0>] 127.0.0.1 - - GET /_utils/ 200
[Thu, 12 Oct 2017 14:30:48 GMT] [info] [<0.000.0>] 127.0.0.1 - - GET /_utils/dashboard.assets/css/styles-a9623008fc27e79da2388441deeacfab.css 200
[Thu, 12 Oct 2017 14:30:48 GMT] [info] [<0.000.0>] 127.0.0.1 - - GET /_utils/dashboard.assets/js/bundle-34997e32896293a1fa5d71f79eb1b4f7.js 200
[Thu, 12 Oct 2017 14:30:49 GMT] [info] [<0.000.0>] 127.0.0.1 - - GET /_session 200
[Thu, 12 Oct 2017 14:30:49 GMT] [info] [<0.000.0>] 127.0.0.1 - - GET /_session 200
[Thu, 12 Oct 2017 14:30:49 GMT] [info] [<0.000.0>] 127.0.0.1 - - GET / 200
[Thu, 12 Oct 2017 14:30:49 GMT] [info] [<0.000.0>] 127.0.0.1 - - GET /_utils/dashboard.assets/img/pouchdb-site.png 200
[Thu, 12 Oct 2017 14:30:49 GMT] [info] [<0.000.0>] 127.0.0.1 - - GET /_utils/dashboard.assets/fonts/fauxtonicon5.woff 200
[Thu, 12 Oct 2017 14:30:49 GMT] [info] [<0.000.0>] 127.0.0.1 - - GET /_all_dbs?_=1507818649036 200
[Thu, 12 Oct 2017 14:30:49 GMT] [info] [<0.000.0>] 127.0.0.1 - - GET /_all_dbs?startkey=%22%22&endkey=%22%E9%A6%99%22&limit=30&_=1507818649037 200
[Thu, 12 Oct 2017 14:30:49 GMT] [info] [<0.000.0>] 127.0.0.1 - - GET /_replicator?_=1507818649038 200
[Thu, 12 Oct 2017 14:30:49 GMT] [info] [<0.000.0>] 127.0.0.1 - - GET /_users?_=1507818649039 200
[Thu, 12 Oct 2017 14:30:49 GMT] [info] [<0.000.0>] 127.0.0.1 - - GET /users?_=1507818649040 200
[Thu, 12 Oct 2017 14:30:49 GMT] [info] [<0.000.0>] 127.0.0.1 - - GET /_utils/dashboard.assets/fonts/fontawesome-webfont.woff 200
[Thu, 12 Oct 2017 14:30:49 GMT] [info] [<0.000.0>] 127.0.0.1 - - GET /_utils/dashboard.assets/img/pouchdb-favicon.png 200
[Thu, 12 Oct 2017 14:31:03 GMT] [info] [<0.000.0>] 127.0.0.1 - - GET /_utils/ 304
[Thu, 12 Oct 2017 14:31:03 GMT] [info] [<0.000.0>] 127.0.0.1 - - GET /_utils/dashboard.assets/css/styles-a9623008fc27e79da2388441deeacfab.css 304
[Thu, 12 Oct 2017 14:31:03 GMT] [info] [<0.000.0>] 127.0.0.1 - - GET /_utils/dashboard.assets/js/bundle-34997e32896293a1fa5d71f79eb1b4f7.js 304
[Thu, 12 Oct 2017 14:31:04 GMT] [info] [<0.000.0>] 127.0.0.1 - - GET /_session 304
[Thu, 12 Oct 2017 14:31:04 GMT] [info] [<0.000.0>] 127.0.0.1 - - GET /_session 304
[Thu, 12 Oct 2017 14:31:04 GMT] [info] [<0.000.0>] 127.0.0.1 - - GET / 304
[Thu, 12 Oct 2017 14:31:04 GMT] [info] [<0.000.0>] 127.0.0.1 - - GET /_utils/dashboard.assets/img/pouchdb-site.png 304
[Thu, 12 Oct 2017 14:31:04 GMT] [info] [<0.000.0>] 127.0.0.1 - - GET /_utils/dashboard.assets/fonts/fauxtonicon5.woff 304
[Thu, 12 Oct 2017 14:31:04 GMT] [info] [<0.000.0>] 127.0.0.1 - - GET /_all_dbs?_=1507818664100 200
[Thu, 12 Oct 2017 14:31:04 GMT] [info] [<0.000.0>] 127.0.0.1 - - GET /_all_dbs?startkey=%22%22&endkey=%22%E9%A6%99%22&limit=30&_=1507818664101 200
[Thu, 12 Oct 2017 14:31:04 GMT] [info] [<0.000.0>] 127.0.0.1 - - GET /_replicator?_=1507818664102 200
[Thu, 12 Oct 2017 14:31:04 GMT] [info] [<0.000.0>] 127.0.0.1 - - GET /_users?_=1507818664103 200
[Thu, 12 Oct 2017 14:31:04 GMT] [info] [<0.000.0>] 127.0.0.1 - - GET /users?_=1507818664104 200
[Thu, 12 Oct 2017 14:31:04 GMT] [info] [<0.000.0>] 127.0.0.1 - - GET /_utils/dashboard.assets/fonts/fontawesome-webfont.woff 304
[Thu, 12 Oct 2017 14:31:04 GMT] [info] [<0.000.0>] 127.0.0.1 - - GET /_utils/dashboard.assets/img/pouchdb-favicon.png 200
[Thu, 12 Oct 2017 14:31:09 GMT] [info] [<0.000.0>] 127.0.0.1 - - GET /_membership 200
[Thu, 12 Oct 2017 14:31:09 GMT] [info] [<0.000.0>] 127.0.0.1 - - GET /_membership 304
[Thu, 12 Oct 2017 14:31:10 GMT] [info] [<0.000.0>] 127.0.0.1 - - GET /_membership 304
[Thu, 12 Oct 2017 14:31:10 GMT] [info] [<0.000.0>] 127.0.0.1 - - GET /_membership 304
[Thu, 12 Oct 2017 14:31:12 GMT] [info] [<0.000.0>] 127.0.0.1 - - PUT /_node/node1@127.0.0.1/_config/admins/admin 200
[Thu, 12 Oct 2017 14:31:12 GMT] [info] [<0.000.0>] 127.0.0.1 - - POST /_session 200
[Thu, 12 Oct 2017 14:31:12 GMT] [info] [<0.000.0>] 127.0.0.1 - - GET /_session 200
[Thu, 12 Oct 2017 14:31:12 GMT] [info] [<0.000.0>] 127.0.0.1 - - GET /_all_dbs?_=1507818664105 200
[Thu, 12 Oct 2017 14:31:12 GMT] [info] [<0.000.0>] 127.0.0.1 - - GET /_replicator?_=1507818664106 200
[Thu, 12 Oct 2017 14:31:12 GMT] [info] [<0.000.0>] 127.0.0.1 - - GET /_users?_=1507818664107 200
[Thu, 12 Oct 2017 14:31:12 GMT] [info] [<0.000.0>] 127.0.0.1 - - GET /users?_=1507818664108 200
[Thu, 12 Oct 2017 14:31:17 GMT] [info] [<0.000.0>] 127.0.0.1 - - GET /_users/_all_docs?startkey=%22_design%2F%22&endkey=%22_design0%22&include_docs=true&limit=501 200
[Thu, 12 Oct 2017 14:31:17 GMT] [info] [<0.000.0>] 127.0.0.1 - - GET /_users/_all_docs?startkey=%22%22&endkey=%22%E9%A6%99%22&limit=30&_=1507818664109 200
[Thu, 12 Oct 2017 14:31:17 GMT] [info] [<0.000.0>] 127.0.0.1 - - GET /_users/_all_docs?limit=21&include_docs=true 200
[Thu, 12 Oct 2017 14:31:42 GMT] [info] [<0.000.0>] 127.0.0.1 - - GET /_all_dbs?_=1507818664110 200
[Thu, 12 Oct 2017 14:31:42 GMT] [info] [<0.000.0>] 127.0.0.1 - - GET /_replicator?_=1507818664111 200
[Thu, 12 Oct 2017 14:31:42 GMT] [info] [<0.000.0>] 127.0.0.1 - - GET /_users?_=1507818664112 200
[Thu, 12 Oct 2017 14:31:42 GMT] [info] [<0.000.0>] 127.0.0.1 - - GET /users?_=1507818664113 200
[Thu, 12 Oct 2017 14:32:27 GMT] [info] [<0.000.0>] pouchdb-server has started on http://127.0.0.1:5984/
[Thu, 12 Oct 2017 14:32:27 GMT] [info] [<0.000.0>] navigate to http://127.0.0.1:5984/_utils for the Fauxton UI.
[Thu, 12 Oct 2017 14:34:54 GMT] [info] [<0.000.0>] pouchdb-server has started on http://127.0.0.1:5984/
[Thu, 12 Oct 2017 14:34:54 GMT] [info] [<0.000.0>] navigate to http://127.0.0.1:5984/_utils for the Fauxton UI.
[Thu, 12 Oct 2017 14:36:22 GMT] [info] [<0.000.0>] pouchdb-server has started on http://127.0.0.1:6000/
[Thu, 12 Oct 2017 14:36:22 GMT] [info] [<0.000.0>] navigate to http://127.0.0.1:6000/_utils for the Fauxton UI.
[Thu, 12 Oct 2017 15:00:57 GMT] [info] [<0.000.0>] pouchdb-server has started on http://127.0.0.1:5984/
[Thu, 12 Oct 2017 15:00:57 GMT] [info] [<0.000.0>] navigate to http://127.0.0.1:5984/_utils for the Fauxton UI.
[Thu, 12 Oct 2017 15:44:59 GMT] [info] [<0.000.0>] 127.0.0.1 - - GET / 304
[Thu, 12 Oct 2017 15:45:05 GMT] [info] [<0.000.0>] 127.0.0.1 - - GET /_utils/ 304
[Thu, 12 Oct 2017 15:45:05 GMT] [info] [<0.000.0>] 127.0.0.1 - - GET /_utils/dashboard.assets/css/styles-a9623008fc27e79da2388441deeacfab.css 304
[Thu, 12 Oct 2017 15:45:05 GMT] [info] [<0.000.0>] 127.0.0.1 - - GET /_utils/dashboard.assets/js/bundle-34997e32896293a1fa5d71f79eb1b4f7.js 304
[Thu, 12 Oct 2017 15:45:05 GMT] [info] [<0.000.0>] 127.0.0.1 - - GET /_session 200
[Thu, 12 Oct 2017 15:45:05 GMT] [info] [<0.000.0>] 127.0.0.1 - - GET /_session 304
[Thu, 12 Oct 2017 15:45:05 GMT] [info] [<0.000.0>] 127.0.0.1 - - GET / 304
[Thu, 12 Oct 2017 15:45:05 GMT] [info] [<0.000.0>] 127.0.0.1 - - GET /_utils/dashboard.assets/img/pouchdb-site.png 304
[Thu, 12 Oct 2017 15:45:05 GMT] [info] [<0.000.0>] 127.0.0.1 - - GET /_utils/dashboard.assets/fonts/fauxtonicon5.woff 304
[Thu, 12 Oct 2017 15:45:09 GMT] [info] [<0.000.0>] 127.0.0.1 - - POST /_session 200
[Thu, 12 Oct 2017 15:45:09 GMT] [info] [<0.000.0>] 127.0.0.1 - - GET /_session 200
[Thu, 12 Oct 2017 15:45:09 GMT] [info] [<0.000.0>] 127.0.0.1 - - GET /_all_dbs?_=1507823105594 200
[Thu, 12 Oct 2017 15:45:09 GMT] [info] [<0.000.0>] 127.0.0.1 - - GET /_all_dbs?startkey=%22%22&endkey=%22%E9%A6%99%22&limit=30&_=1507823105595 200
[Thu, 12 Oct 2017 15:45:09 GMT] [info] [<0.000.0>] 127.0.0.1 - - GET /_replicator?_=1507823105596 200
[Thu, 12 Oct 2017 15:45:09 GMT] [info] [<0.000.0>] 127.0.0.1 - - GET /_utils/dashboard.assets/fonts/fontawesome-webfont.woff 304
[Thu, 12 Oct 2017 15:45:09 GMT] [info] [<0.000.0>] 127.0.0.1 - - GET /_users?_=1507823105597 200
[Thu, 12 Oct 2017 15:45:10 GMT] [info] [<0.000.0>] 127.0.0.1 - - GET /users?_=1507823105598 200
[Thu, 12 Oct 2017 15:45:13 GMT] [info] [<0.000.0>] 127.0.0.1 - - GET /users/_all_docs?startkey=%22_design%2F%22&endkey=%22_design0%22&include_docs=true&limit=501 304
[Thu, 12 Oct 2017 15:45:13 GMT] [info] [<0.000.0>] 127.0.0.1 - - GET /users/_all_docs?limit=21 304
[Thu, 12 Oct 2017 15:45:13 GMT] [info] [<0.000.0>] 127.0.0.1 - - GET /users/_all_docs?startkey=%22%22&endkey=%22%E9%A6%99%22&limit=30&_=1507823105599 200
[Thu, 12 Oct 2017 15:45:14 GMT] [info] [<0.000.0>] 127.0.0.1 - - GET /_utils/dashboard.assets/img/couch-watermark.png 304
[Thu, 12 Oct 2017 15:45:18 GMT] [info] [<0.000.0>] 127.0.0.1 - - GET /utils 404
[Thu, 12 Oct 2017 15:45:24 GMT] [info] [<0.000.0>] 127.0.0.1 - - GET /_utils/ 304
[Thu, 12 Oct 2017 15:45:24 GMT] [info] [<0.000.0>] 127.0.0.1 - - GET /_utils/dashboard.assets/css/styles-a9623008fc27e79da2388441deeacfab.css 304
[Thu, 12 Oct 2017 15:45:24 GMT] [info] [<0.000.0>] 127.0.0.1 - - GET /_utils/dashboard.assets/js/bundle-34997e32896293a1fa5d71f79eb1b4f7.js 304
[Thu, 12 Oct 2017 15:45:24 GMT] [info] [<0.000.0>] 127.0.0.1 - - GET /_session 304
[Thu, 12 Oct 2017 15:45:24 GMT] [info] [<0.000.0>] 127.0.0.1 - - GET /_session 304
[Thu, 12 Oct 2017 15:45:24 GMT] [info] [<0.000.0>] 127.0.0.1 - - GET / 304
[Thu, 12 Oct 2017 15:45:24 GMT] [info] [<0.000.0>] 127.0.0.1 - - GET /_utils/dashboard.assets/img/pouchdb-site.png 304
[Thu, 12 Oct 2017 15:45:24 GMT] [info] [<0.000.0>] 127.0.0.1 - - GET /_utils/dashboard.assets/fonts/fauxtonicon5.woff 304
[Thu, 12 Oct 2017 15:45:25 GMT] [info] [<0.000.0>] 127.0.0.1 - - GET /_all_dbs?_=1507823124618 200
[Thu, 12 Oct 2017 15:45:25 GMT] [info] [<0.000.0>] 127.0.0.1 - - GET /_all_dbs?startkey=%22%22&endkey=%22%E9%A6%99%22&limit=30&_=1507823124619 200
[Thu, 12 Oct 2017 15:45:25 GMT] [info] [<0.000.0>] 127.0.0.1 - - GET /_replicator?_=1507823124620 200
[Thu, 12 Oct 2017 15:45:25 GMT] [info] [<0.000.0>] 127.0.0.1 - - GET /_users?_=1507823124621 200
[Thu, 12 Oct 2017 15:45:25 GMT] [info] [<0.000.0>] 127.0.0.1 - - GET /users?_=1507823124622 200
[Thu, 12 Oct 2017 15:45:25 GMT] [info] [<0.000.0>] 127.0.0.1 - - GET /_utils/dashboard.assets/fonts/fontawesome-webfont.woff 304
[Thu, 12 Oct 2017 15:45:26 GMT] [info] [<0.000.0>] 127.0.0.1 - - GET /_users/_all_docs?startkey=%22_design%2F%22&endkey=%22_design0%22&include_docs=true&limit=501 200
[Thu, 12 Oct 2017 15:45:26 GMT] [info] [<0.000.0>] 127.0.0.1 - - GET /_users/_all_docs?limit=21&include_docs=true 200
[Thu, 12 Oct 2017 15:45:26 GMT] [info] [<0.000.0>] 127.0.0.1 - - GET /_users/_all_docs?startkey=%22%22&endkey=%22%E9%A6%99%22&limit=30&_=1507823124623 200
[Thu, 12 Oct 2017 15:45:37 GMT] [info] [<0.000.0>] 127.0.0.1 - - GET /_active_tasks 304
[Thu, 12 Oct 2017 15:45:45 GMT] [info] [<0.000.0>] 127.0.0.1 - - GET /_all_dbs?_=1507823124624 200
[Thu, 12 Oct 2017 15:45:45 GMT] [info] [<0.000.0>] 127.0.0.1 - - GET /_replicator?_=1507823124625 200
[Thu, 12 Oct 2017 15:45:45 GMT] [info] [<0.000.0>] 127.0.0.1 - - GET /_users?_=1507823124626 200
[Thu, 12 Oct 2017 15:45:45 GMT] [info] [<0.000.0>] 127.0.0.1 - - GET /users?_=1507823124627 200
[Thu, 12 Oct 2017 15:45:46 GMT] [info] [<0.000.0>] 127.0.0.1 - - GET /_utils/dashboard.assets/img/pouchdb-minilogo.png 200
[Thu, 12 Oct 2017 15:45:49 GMT] [info] [<0.000.0>] 127.0.0.1 - - GET /users/_all_docs?startkey=%22_design%2F%22&endkey=%22_design0%22&include_docs=true&limit=501 304
[Thu, 12 Oct 2017 15:45:49 GMT] [info] [<0.000.0>] 127.0.0.1 - - GET /users/_all_docs?limit=21 304
[Thu, 12 Oct 2017 15:45:49 GMT] [info] [<0.000.0>] 127.0.0.1 - - GET /users/_all_docs?startkey=%22%22&endkey=%22%E9%A6%99%22&limit=30&_=1507823124628 200
[Thu, 12 Oct 2017 15:45:49 GMT] [info] [<0.000.0>] 127.0.0.1 - - GET /_utils/dashboard.assets/img/couch-watermark.png 304
[Thu, 12 Oct 2017 15:45:51 GMT] [info] [<0.000.0>] 127.0.0.1 - - GET /_all_dbs?_=1507823124629 200
[Thu, 12 Oct 2017 15:45:51 GMT] [info] [<0.000.0>] 127.0.0.1 - - GET /_replicator?_=1507823124630 200
[Thu, 12 Oct 2017 15:45:51 GMT] [info] [<0.000.0>] 127.0.0.1 - - GET /_users?_=1507823124631 200
[Thu, 12 Oct 2017 15:45:51 GMT] [info] [<0.000.0>] 127.0.0.1 - - GET /users?_=1507823124632 200
[Wed, 29 Nov 2017 23:46:08 GMT] [info] [<0.000.0>] pouchdb-server has started on http://127.0.0.1:5984/
[Wed, 29 Nov 2017 23:46:08 GMT] [info] [<0.000.0>] navigate to http://127.0.0.1:5984/_utils for the Fauxton UI.
[Wed, 29 Nov 2017 23:46:38 GMT] [info] [<0.000.0>] 127.0.0.1 - - GET / 200
[Wed, 29 Nov 2017 23:46:50 GMT] [info] [<0.000.0>] 127.0.0.1 - - GET /_utils 301
[Wed, 29 Nov 2017 23:46:50 GMT] [info] [<0.000.0>] 127.0.0.1 - - GET /_utils/ 200
[Wed, 29 Nov 2017 23:46:51 GMT] [info] [<0.000.0>] 127.0.0.1 - - GET /_utils/dashboard.assets/css/styles-a9623008fc27e79da2388441deeacfab.css 200
[Wed, 29 Nov 2017 23:46:51 GMT] [info] [<0.000.0>] 127.0.0.1 - - GET /_utils/dashboard.assets/js/bundle-34997e32896293a1fa5d71f79eb1b4f7.js 200
[Wed, 29 Nov 2017 23:46:51 GMT] [info] [<0.000.0>] 127.0.0.1 - - GET /_session 200
[Wed, 29 Nov 2017 23:46:51 GMT] [info] [<0.000.0>] 127.0.0.1 - - GET /_session 304
[Wed, 29 Nov 2017 23:46:51 GMT] [info] [<0.000.0>] 127.0.0.1 - - GET / 304
[Wed, 29 Nov 2017 23:46:51 GMT] [info] [<0.000.0>] 127.0.0.1 - - GET /_utils/dashboard.assets/fonts/fauxtonicon5.woff 200
[Wed, 29 Nov 2017 23:46:51 GMT] [info] [<0.000.0>] 127.0.0.1 - - GET /_utils/dashboard.assets/img/pouchdb-site.png 200
[Wed, 29 Nov 2017 23:46:51 GMT] [info] [<0.000.0>] 127.0.0.1 - - GET /_utils/dashboard.assets/img/pouchdb-favicon.png 200
[Wed, 29 Nov 2017 23:46:53 GMT] [info] [<0.000.0>] 127.0.0.1 - - POST /_session 200
[Wed, 29 Nov 2017 23:46:53 GMT] [info] [<0.000.0>] 127.0.0.1 - - GET /_session 200
[Wed, 29 Nov 2017 23:46:53 GMT] [info] [<0.000.0>] 127.0.0.1 - - GET /_all_dbs?_=1511999211365 200
[Wed, 29 Nov 2017 23:46:53 GMT] [info] [<0.000.0>] 127.0.0.1 - - GET /_all_dbs?startkey=%22%22&endkey=%22%E9%A6%99%22&limit=30&_=1511999211366 200
[Wed, 29 Nov 2017 23:46:53 GMT] [info] [<0.000.0>] 127.0.0.1 - - GET /_replicator?_=1511999211367 200
[Wed, 29 Nov 2017 23:46:53 GMT] [info] [<0.000.0>] 127.0.0.1 - - GET /_users?_=1511999211368 200
[Wed, 29 Nov 2017 23:46:53 GMT] [info] [<0.000.0>] 127.0.0.1 - - GET /_utils/dashboard.assets/fonts/fontawesome-webfont.woff 200
[Wed, 29 Nov 2017 23:46:57 GMT] [info] [<0.000.0>] 127.0.0.1 - - GET /_all_dbs?_=1511999211369 200
[Wed, 29 Nov 2017 23:46:57 GMT] [info] [<0.000.0>] 127.0.0.1 - - GET /_replicator?_=1511999211370 200
[Wed, 29 Nov 2017 23:46:57 GMT] [info] [<0.000.0>] 127.0.0.1 - - GET /_users?_=1511999211371 200
[Wed, 29 Nov 2017 23:47:00 GMT] [info] [<0.000.0>] 127.0.0.1 - - GET /_membership 200
[Wed, 29 Nov 2017 23:47:00 GMT] [info] [<0.000.0>] 127.0.0.1 - - GET /_membership 304
[Wed, 29 Nov 2017 23:47:03 GMT] [info] [<0.000.0>] 127.0.0.1 - - GET /_membership 304
[Wed, 29 Nov 2017 23:47:03 GMT] [info] [<0.000.0>] 127.0.0.1 - - GET /_membership 304
[Wed, 29 Nov 2017 23:47:15 GMT] [info] [<0.000.0>] 127.0.0.1 - - PUT /_node/node1@127.0.0.1/_config/admins/admin 200
[Wed, 29 Nov 2017 23:47:15 GMT] [info] [<0.000.0>] 127.0.0.1 - - POST /_session 200
[Wed, 29 Nov 2017 23:47:15 GMT] [info] [<0.000.0>] 127.0.0.1 - - GET /_session 200
[Wed, 29 Nov 2017 23:47:19 GMT] [info] [<0.000.0>] 127.0.0.1 - - GET /_all_dbs?_=1511999211372 200
[Wed, 29 Nov 2017 23:47:19 GMT] [info] [<0.000.0>] 127.0.0.1 - - GET /_replicator?_=1511999211373 200
[Wed, 29 Nov 2017 23:47:19 GMT] [info] [<0.000.0>] 127.0.0.1 - - GET /_users?_=1511999211374 200
[Wed, 29 Nov 2017 23:47:26 GMT] [info] [<0.000.0>] 127.0.0.1 - - GET /_users/_all_docs?startkey=%22_design%2F%22&endkey=%22_design0%22&include_docs=true&limit=501 200
[Wed, 29 Nov 2017 23:47:26 GMT] [info] [<0.000.0>] 127.0.0.1 - - GET /_users/_all_docs?limit=21&include_docs=true 200
[Wed, 29 Nov 2017 23:47:26 GMT] [info] [<0.000.0>] 127.0.0.1 - - GET /_users/_all_docs?startkey=%22%22&endkey=%22%E9%A6%99%22&limit=30&_=1511999211375 200
[Wed, 29 Nov 2017 23:47:32 GMT] [info] [<0.000.0>] 127.0.0.1 - - GET /_users/_changes?limit=100 200
[Wed, 29 Nov 2017 23:47:32 GMT] [info] [<0.000.0>] 127.0.0.1 - - GET /_users/_all_docs?startkey=%22%22&endkey=%22%E9%A6%99%22&limit=30&_=1511999211376 200
[Wed, 29 Nov 2017 23:47:35 GMT] [info] [<0.000.0>] 127.0.0.1 - - GET /_users/_all_docs?startkey=%22_design%22&endkey=%22_design0%22&limit=21&include_docs=true 200
[Wed, 29 Nov 2017 23:47:35 GMT] [info] [<0.000.0>] 127.0.0.1 - - GET /_users/_all_docs?startkey=%22%22&endkey=%22%E9%A6%99%22&limit=30&_=1511999211377 200
[Wed, 29 Nov 2017 23:47:41 GMT] [info] [<0.000.0>] 127.0.0.1 - - GET /_users/_all_docs?limit=21&include_docs=true 304
[Wed, 29 Nov 2017 23:47:43 GMT] [info] [<0.000.0>] 127.0.0.1 - - GET /_all_dbs?_=1511999211378 200
[Wed, 29 Nov 2017 23:47:43 GMT] [info] [<0.000.0>] 127.0.0.1 - - GET /_replicator?_=1511999211379 200
[Wed, 29 Nov 2017 23:47:43 GMT] [info] [<0.000.0>] 127.0.0.1 - - GET /_users?_=1511999211380 200
[Wed, 29 Nov 2017 23:48:14 GMT] [info] [<0.000.0>] 127.0.0.1 - - GET /users 404
[Wed, 29 Nov 2017 23:48:22 GMT] [info] [<0.000.0>] 127.0.0.1 - - GET /steelusers 404
[Wed, 29 Nov 2017 23:48:26 GMT] [info] [<0.000.0>] 127.0.0.1 - - GET / 304
[Mon, 04 Dec 2017 14:53:51 GMT] [info] [<0.000.0>] pouchdb-server has started on http://127.0.0.1:5984/
[Mon, 04 Dec 2017 14:53:51 GMT] [info] [<0.000.0>] navigate to http://127.0.0.1:5984/_utils for the Fauxton UI.
[Mon, 04 Dec 2017 14:54:03 GMT] [info] [<0.000.0>] pouchdb-server has started on http://127.0.0.1:5984/
[Mon, 04 Dec 2017 14:54:03 GMT] [info] [<0.000.0>] navigate to http://127.0.0.1:5984/_utils for the Fauxton UI.
[Mon, 04 Dec 2017 14:55:04 GMT] [info] [<0.000.0>] pouchdb-server has started on http://127.0.0.1:3000/
[Mon, 04 Dec 2017 14:55:04 GMT] [info] [<0.000.0>] navigate to http://127.0.0.1:3000/_utils for the Fauxton UI.
[Mon, 04 Dec 2017 14:55:38 GMT] [info] [<0.000.0>] pouchdb-server has started on http://127.0.0.1:3000/
[Mon, 04 Dec 2017 14:55:38 GMT] [info] [<0.000.0>] navigate to http://127.0.0.1:3000/_utils for the Fauxton UI.
[Mon, 04 Dec 2017 14:55:44 GMT] [info] [<0.000.0>] pouchdb-server has started on http://127.0.0.1:5984/
[Mon, 04 Dec 2017 14:55:44 GMT] [info] [<0.000.0>] navigate to http://127.0.0.1:5984/_utils for the Fauxton UI.
